2019-06-21T00:00:01   after "2020-02-26T09:22:01"
2019-06-21T00:00:02   loaded 1 managers
2019-06-21T00:00:03 updated DateLastModif:2020-02-26 ArbitrManagerID:22332 (Соловьева Златослава Владимировна) 
