[
	{
		"contract_number": "6509",
		"id_Procedure": "111503",
		"deal_number": "А06-10774\/2015",
		"au_server": "Баунова Евгения Юрьевна",
		"au_message": "manager manager manager",
		"message_efrsbId": 1661763,
		"status": "Warning"
	}
]