{
	"results": [
		{
			"id": 2,
			"text": "Колкий Колк Колкович",
			"data": {
				"Должник": {
					"Наименование": "Колкий Колк Колкович",
					"ИНН": "436364310031",
					"ОГРН": null,
					"СНИЛС": "79972271685"
				},
				"АУ": {
					"Фамилия": "Олегов",
					"Имя": "Олег",
					"Отчество": "Олегович"
				}
			}
		}
	]
}