load old messages
 after  2019-01-31T00:00:00
 before 2019-02-12T00:00:00
from efrsb
 url= "http://test.fedresurs.ru/MessageService/WebService.svc?singleWsdl"
 login= "demowebuser"
 password= "????????"
2019-02-13T00:00:01 start loading old messages
2019-02-13T00:00:02 finish loading old messages
