2019-06-21T00:00:01 update messages WHERE Number IS NULL
2019-06-21T00:00:02 7 messages to update..
2019-06-21T00:00:03 read 7 messages to update
2019-06-21T00:00:04 updated: 2 1 4 8 6 5 7
2019-06-21T00:00:05 stop for today
