--- Message ---
Revision=5
Body:
<MessageData xmlns:xsi="http://www.w3.org/2001/XMLSchema-instance" xmlns:xsd="http://www.w3.org/2001/XMLSchema">
  <Id>1661758</Id>
  <Number>1661758</Number>
  <CaseNumber>14-22212/2018 </CaseNumber>
  <PublisherInfo PublisherType="ArbitrManager">
    <ArbitrManager Id="22297" FirstName="ĸ ­" MiddleName="ĨâāŽĸ¨į" LastName=" á¨ĢėĨĸ" INN="110115686508" SNILS="11111111111" RegistryNumber="457674635345">
      <OGRN />
      <Sro SroId="1">
        <SroName>ááŽæ¨ æ¨ī "Ĩāĸ ī  " - ááŽæ¨ æ¨ī <Ĩāĸ ī  ŦŽāĨŖãĢ¨āãĨŦ ī āŖ ­¨§ æ¨ī āĄ¨âā Ļ­ëå ¯ā ĸĢīîé¨å § āĨŖ¨áâā¨āŽĸ ­­ ī ĸ Ĩ¤¨­ŽŦ ŖŽáã¤ āáâĸĨ­­ŽŦ āĨĨáâāĨ á ŦŽāĨŖãĢ¨āãĨŦëå ŽāŖ ­¨§ æ¨Š  āĄ¨âā Ļ­ëå ã¯ā ĸĢīîé¨å></SroName>
        <SroRegistryNumber>001-1</SroRegistryNumber>
        <OGRN>1025203032150</OGRN>
        <INN>5260111551</INN>
        <LegalAddress>109029, Ŗ. ŽáĒĸ , ãĢ. ĒŽâŽ¯āŽŖŽ­­ ī, ¤. 29/1</LegalAddress>
      </Sro>
      <CorrespondenceAddress>484545646¯</CorrespondenceAddress>
    </ArbitrManager>
  </PublisherInfo>
  <MessageInfo MessageType="Other">
    <Other>
      <Text>Testing service</Text>
    </Other>
  </MessageInfo>
  <BankruptInfo BankruptType="Organization" BankruptCategory="SimpleOrganization">
    <BankruptFirm Id="98901" InsolventCategoryName="Ąëį­ ī ŽāŖ ­¨§ æ¨ī" FullName="    &quot;  &quot;" ShortName="  &quot;  &quot;" PostAddress="394019,  ,  ,  ,  24 " OKPO="" OGRN="8077363037447" LegalAddress="394019,  ,  ,  ,  24 ">
      <INN>2777267292</INN>
    </BankruptFirm>
  </BankruptInfo>
  <PublishDate>2019-02-08T16:43:49.233</PublishDate>
  <BankruptId>138800</BankruptId>
  <MessageGUID>47A484929709B1CB68F4A38A611B5DFD</MessageGUID>
</MessageData>
