[
	{
		"Revision": 5,
		"Body": "<MessageData xmlns:xsi=\"http:\/\/www.w3.org\/2001\/XMLSchema-instance\" xmlns:xsd=\"http:\/\/www.w3.org\/2001\/XMLSchema\">\r\n  <Id>1661758<\/Id>\r\n  <Number>1661758<\/Number>\r\n  <CaseNumber>А14-22212\/2018 <\/CaseNumber>\r\n  <PublisherInfo PublisherType=\"ArbitrManager\">\r\n    <ArbitrManager Id=\"22297\" FirstName=\"Иван\" MiddleName=\"Петрович\" LastName=\"Васильев\" INN=\"110115686508\" SNILS=\"11111111111\" RegistryNumber=\"457674635345\">\r\n      <OGRN \/>\r\n      <Sro SroId=\"1\">\r\n        <SroName>Ассоциация \"Первая СРО АУ\" - Ассоциация «Первая Саморегулируемая Организация Арбитражных Управляющих зарегистрированная в едином государственном реестре саморегулируемых организаций арбитражных управляющих»<\/SroName>\r\n        <SroRegistryNumber>001-1<\/SroRegistryNumber>\r\n        <OGRN>1025203032150<\/OGRN>\r\n        <INN>5260111551<\/INN>\r\n        <LegalAddress>109029, г. Москва, ул. Скотопрогонная, д. 29\/1<\/LegalAddress>\r\n      <\/Sro>\r\n      <CorrespondenceAddress>484545646п<\/CorrespondenceAddress>\r\n    <\/ArbitrManager>\r\n  <\/PublisherInfo>\r\n  <MessageInfo MessageType=\"Other\">\r\n    <Other>\r\n      <Text>Testing service<\/Text>\r\n    <\/Other>\r\n  <\/MessageInfo>\r\n  <BankruptInfo BankruptType=\"Organization\" BankruptCategory=\"SimpleOrganization\">\r\n    <BankruptFirm Id=\"98901\" InsolventCategoryName=\"Обычная организация\" FullName=\"ОБЩЕСТВО С ОГРАНИЧЕННОЙ ОТВЕТСВЕННОСТЬЮ &quot;ДЛЯ СВОИХ НУЖД&quot;\" ShortName=\"ООО  &quot;ДЛЯ СВОИХ НУЖД&quot;\" PostAddress=\"394019, ВОРОНЕЖСКАЯ ОБЛ, ГОРОД ВОРОНЕЖ, УЛИЦА ЕРЕМЕЕВА, ДОМ 24 \" OKPO=\"\" OGRN=\"8077363037447\" LegalAddress=\"394019, ВОРОНЕЖСКАЯ ОБЛ, ГОРОД ВОРОНЕЖ, УЛИЦА ЕРЕМЕЕВА, ДОМ 24 \">\r\n      <INN>2777267292<\/INN>\r\n    <\/BankruptFirm>\r\n  <\/BankruptInfo>\r\n  <PublishDate>2019-02-08T16:43:49.233<\/PublishDate>\r\n  <BankruptId>138800<\/BankruptId>\r\n  <MessageGUID>47A484929709B1CB68F4A38A611B5DFD<\/MessageGUID>\r\n<\/MessageData>"
	}
]