load new messages
from efrsb
 url= "http://test.fedresurs.ru/MessageService/WebService.svc?singleWsdl"
 login= "demowebuser"
 password= "????????"
2020-01-30T00:00:01 start loading new messages
2020-01-30T00:00:02 max(PublishDate)=
2020-01-30T00:00:03       check from 2020-01-14T23:59:00
2020-01-30T00:00:04     0 messages in the database
2020-01-30T00:00:05    29 messages to download
        download messages 1663105 1661655 1663102 1663117 1663119 1663118 1663121 1663122 1663123 1663124 1663125 1663126 1663127 1663129 1663130 1663131 1663132 1663133 1663134 1663135 1663136 1663137 1663142 1663143 1663149 1663150 1663151 1663166 1663168 
2020-01-30T00:00:06 finish loading new messages
