load new messages
from efrsb
 url= "http://test.fedresurs.ru/MessageService/WebService.svc?singleWsdl"
 login= "demowebuser"
 password= "????????"
2020-01-30T00:00:01 start loading new messages
2020-01-30T00:00:02 max(PublishDate)=2020-02-28 16:21:03
2020-01-30T00:00:03       check from 2020-02-28T16:20:03
2020-01-30T00:00:04     2 messages in the database
2020-01-30T00:00:05    2 messages to download
        download messages 
2020-01-30T00:00:06 finish loading new messages
