*************************** 1. row ***************************
     BankruptId: 1490
           Name: ЗАО "Залегощь-Сахар"
ArbitrManagerID: 22297
*************************** 2. row ***************************
     BankruptId: 10142
           Name: ООО «Ройал Мастер»  
ArbitrManagerID: 22332
*************************** 3. row ***************************
     BankruptId: 55623
           Name: ОАО "СМОЛЕНСКИЙ БАНК"
ArbitrManagerID: NULL
*************************** 4. row ***************************
     BankruptId: 81952
           Name: ООО КБ "ТРАНСПОРТНЫЙ"
ArbitrManagerID: NULL
*************************** 5. row ***************************
     BankruptId: 90215
           Name: ПАО АКБ "РБР"
ArbitrManagerID: NULL
*************************** 6. row ***************************
     BankruptId: 90951
           Name: ПАО АКБ "БАЛТИКА"
ArbitrManagerID: NULL
*************************** 7. row ***************************
     BankruptId: 92135
           Name: "ДИЛ-БАНК" (ООО)
ArbitrManagerID: NULL
*************************** 8. row ***************************
     BankruptId: 114507
           Name: 1-й НПФ АО
ArbitrManagerID: NULL
*************************** 9. row ***************************
     BankruptId: 138800
           Name: ООО  "ДЛЯ СВОИХ НУЖД"
ArbitrManagerID: 22297
*************************** 10. row ***************************
     BankruptId: 138895
           Name: Банк СБРР (ООО)
ArbitrManagerID: NULL
*************************** 11. row ***************************
     BankruptId: 138934
           Name: efwfewf wefewfefewf 23
ArbitrManagerID: 22297
*************************** 12. row ***************************
     BankruptId: 138969
           Name: ВОЛКОВ ВОЛКОВ ВОЛКОВ
ArbitrManagerID: 22297
*************************** 13. row ***************************
     BankruptId: 138972
           Name: АО КБ «ИВАНОВО»
ArbitrManagerID: NULL
*************************** 14. row ***************************
     BankruptId: 138973
           Name: Раиса Раиса Раиса
ArbitrManagerID: 22297
