2019-07-23T00:00:01 select LastParsedContactsMessageRevision..
2019-07-23T00:00:02 let's read & parse messages with Revision>=0
2019-07-23T00:00:03 read 4 messages to parse, parse message Revisions:
 10009 100010 100011 100012
2019-07-23T00:00:04 no messages to parse!
