2019-02-13T00:00:01 loading 2019-02-08 - 0 (0 already loaded)
2019-02-13T00:00:02    0 messages in the database
2019-02-13T00:00:03    2 messages to download
        download messages 1661758 1661759 
