[
	{
		"OGRNIP": null,
		"INN": "055554427038",
		"FirstName": "Олег",
		"LastName": "Олегов",
		"MiddleName": "Олегович",
		"ArbitrManagerID": 1,
		"RegNum": "2"
	},
	{
		"OGRNIP": null,
		"INN": "167591839508",
		"FirstName": "Юлия",
		"LastName": "Юльева",
		"MiddleName": "Юльевна",
		"ArbitrManagerID": 2,
		"RegNum": null
	}
]