stdClass Object
(
    [INN] => 2777267292
    [OGRN] => 8077363037447
    [SNILS] => 
    [PublishDate] => 2019-02-08T17:00:46.22
    [Id] => 1661759
    [ArbitrManagerID] => 22297
    [BankruptType] => Organization
    [MessageInfo_MessageType] => Other
    [BankruptId] => 138800
    [Number] => 1661759
    [MessageGUID] => AB9BDA8FF298635B7444E2BFE415231C
)
