stdClass Object
(
    [INN] => 
    [OGRN] => 
    [SNILS] => 05365699797
    [PublishDate] => 2019-02-27T09:58:57.113
    [Id] => 3513520
    [ArbitrManagerID] => 9421
    [BankruptType] => Person
    [MessageInfo_MessageType] => ReceivingCreditorDemand
    [BankruptId] => 235777
    [Number] => 3513520
    [MessageGUID] => 6E4D545AED84B918F9643A34B1BE1534
)
